Curso dplyr y ggplot2
…
## Saving 7 x 5 in image

3 Paquete dplyr

3.1 Operaciones bsicas

##### Basic Operation #####

data(starwars)
datatable(starwars)

## select: subset column ##
select(starwars,name,height,mass,species,homeworld)

## # A tibble: 87 x 5
##    name               height  mass species homeworld
##    <chr>               <int> <dbl> <chr>   <chr>    
##  1 Luke Skywalker        172    77 Human   Tatooine 
##  2 C-3PO                 167    75 Droid   Tatooine 
##  3 R2-D2                  96    32 Droid   Naboo    
##  4 Darth Vader           202   136 Human   Tatooine 
##  5 Leia Organa           150    49 Human   Alderaan 
##  6 Owen Lars             178   120 Human   Tatooine 
##  7 Beru Whitesun lars    165    75 Human   Tatooine 
##  8 R5-D4                  97    32 Droid   Tatooine 
##  9 Biggs Darklighter     183    84 Human   Tatooine 
## 10 Obi-Wan Kenobi        182    77 Human   Stewjon  
## #  with 77 more rows

select(starwars,name:homeworld)

## # A tibble: 87 x 10
##    name  height  mass hair_color skin_color eye_color birth_year sex   gender
##    <chr>  <int> <dbl> <chr>      <chr>      <chr>          <dbl> <chr> <chr> 
##  1 Luke    172    77 blond      fair       blue            19   male  mascu
##  2 C-3PO    167    75 <NA>       gold       yellow         112   none  mascu
##  3 R2-D2     96    32 <NA>       white, bl red             33   none  mascu
##  4 Dart    202   136 none       white      yellow          41.9 male  mascu
##  5 Leia    150    49 brown      light      brown           19   fema femin
##  6 Owen    178   120 brown, gr light      blue            52   male  mascu
##  7 Beru    165    75 brown      light      blue            47   fema femin
##  8 R5-D4     97    32 <NA>       white, red red             NA   none  mascu
##  9 Bigg    183    84 black      light      brown           24   male  mascu
## 10 Obi-    182    77 auburn, w fair       blue-gray       57   male  mascu
## #  with 77 more rows, and 1 more variable: homeworld <chr>
…
filter(starwars,species=="Human" | mass < 100)

## # A tibble: 65 x 14
##    name  height  mass hair_color skin_color eye_color birth_year sex   gender
##    <chr>  <int> <dbl> <chr>      <chr>      <chr>          <dbl> <chr> <chr> 
##  1 Luke    172    77 blond      fair       blue            19   male  mascu
##  2 C-3PO    167    75 <NA>       gold       yellow         112   none  mascu
##  3 R2-D2     96    32 <NA>       white, bl red             33   none  mascu
##  4 Dart    202   136 none       white      yellow          41.9 male  mascu
##  5 Leia    150    49 brown      light      brown           19   fema femin
##  6 Owen    178   120 brown, gr light      blue            52   male  mascu
##  7 Beru    165    75 brown      light      blue            47   fema femin
##  8 R5-D4     97    32 <NA>       white, red red             NA   none  mascu
##  9 Bigg    183    84 black      light      brown           24   male  mascu
## 10 Obi-    182    77 auburn, w fair       blue-gray       57   male  mascu
## #  with 55 more rows, and 5 more variables: homeworld <chr>, species <chr>,
## #   films <list>, vehicles <list>, starships <list>

## mutate: create a new column
mutate(starwars,height_by_mass = height / mass)

## # A tibble: 87 x 15
##    name  height  mass hair_color skin_color eye_color birth_year sex   gender
##    <chr>  <int> <dbl> <chr>      <chr>      <chr>          <dbl> <chr> <chr> 
##  1 Luke    172    77 blond      fair       blue            19   male  mascu
##  2 C-3PO    167    75 <NA>       gold       yellow         112   none  mascu
##  3 R2-D2     96    32 <NA>       white, bl red             33   none  mascu
##  4 Dart    202   136 none       white      yellow          41.9 male  mascu
##  5 Leia    150    49 brown      light      brown           19   fema femin
##  6 Owen    178   120 brown, gr light      blue            52   male  mascu
##  7 Beru    165    75 brown      light      blue            47   fema femin
##  8 R5-D4     97    32 <NA>       white, red red             NA   none  mascu
##  9 Bigg    183    84 black      light      brown           24   male  mascu
## 10 Obi-    182    77 auburn, w fair       blue-gray       57   male  mascu
## #  with 77 more rows, and 6 more variables: homeworld <chr>, species <chr>,
## #   films <list>, vehicles <list>, starships <list>, height_by_mass <dbl>

## group_by: group data
group_by(starwars,gender)

## # A tibble: 87 x 14
## # Groups:   gender [3]
##    name  height  mass hair_color skin_color eye_color birth_year sex   gender
##    <chr>  <int> <dbl> <chr>      <chr>      <chr>          <dbl> <chr> <chr> 
##  1 Luke    172    77 blond      fair       blue            19   male  mascu
##  2 C-3PO    167    75 <NA>       gold       yellow         112   none  mascu
##  3 R2-D2     96    32 <NA>       white, bl red             33   none  mascu
##  4 Dart    202   136 none       white      yellow          41.9 male  mascu
##  5 Leia    150    49 brown      light      brown           19   fema femin
##  6 Owen    178   120 brown, gr light      blue            52   male  mascu
##  7 Beru    165    75 brown      light      blue            47   fema femin
##  8 R5-D4     97    32 <NA>       white, red red             NA   none  mascu
##  9 Bigg    183    84 black      light      brown           24   male  mascu
## 10 Obi-    182    77 auburn, w fair       blue-gray       57   male  mascu
## #  with 77 more rows, and 5 more variables: homeworld <chr>, species <chr>,
## #   films <list>, vehicles <list>, starships <list>
…
summarize(group_by(starwars,gender),mean_height = mean(height,na.rm=T))

## `summarise()` ungrouping output (override with `.groups` argument)

## # A tibble: 3 x 2
##   gender    mean_height
##   <chr>           <dbl>
## 1 feminine         165.
## 2 masculine        177.
## 3 <NA>             181.

## arrange: sort columns
arrange(starwars,mass)

## # A tibble: 87 x 14
##    name  height  mass hair_color skin_color eye_color birth_year sex   gender
##    <chr>  <int> <dbl> <chr>      <chr>      <chr>          <dbl> <chr> <chr> 
##  1 Ratt     79    15 none       grey, blue unknown           NA male  mascu
##  2 Yoda      66    17 white      green      brown            896 male  mascu
##  3 Wick     88    20 brown      brown      brown              8 male  mascu
##  4 R2-D2     96    32 <NA>       white, bl red               33 none  mascu
##  5 R5-D4     97    32 <NA>       white, red red               NA none  mascu
##  6 Sebu    112    40 none       grey, red  orange            NA male  mascu
##  7 Dud      94    45 none       blue, grey yellow            NA male  mascu
##  8 Padm    165    45 brown      light      brown             46 fema femin
##  9 Wat     193    48 none       green, gr unknown           NA male  mascu
## 10 Sly     178    48 none       pale       white             NA <NA>  <NA>  
## #  with 77 more rows, and 5 more variables: homeworld <chr>, species <chr>,
## #   films <list>, vehicles <list>, starships <list>

arrange(starwars,desc(mass))

## # A tibble: 87 x 14
##    name  height  mass hair_color skin_color eye_color birth_year sex   gender
##    <chr>  <int> <dbl> <chr>      <chr>      <chr>          <dbl> <chr> <chr> 
##  1 Jabb    175  1358 <NA>       green-tan orange         600   herm mascu
##  2 Grie    216   159 none       brown, wh green, y       NA   male  mascu
##  3 IG-88    200   140 none       metal      red             15   none  mascu
##  4 Dart    202   136 none       white      yellow          41.9 male  mascu
##  5 Tarf    234   136 brown      brown      blue            NA   male  mascu
##  6 Owen    178   120 brown, gr light      blue            52   male  mascu
##  7 Bossk    190   113 none       green      red             53   male  mascu
##  8 Chew    228   112 brown      unknown    blue           200   male  mascu
##  9 Jek     180   110 brown      fair       blue            NA   male  mascu
## 10 Dext    198   102 none       brown      yellow          NA   male  mascu
## #  with 77 more rows, and 5 more variables: homeworld <chr>, species <chr>,
## #   films <list>, vehicles <list>, starships <list>
…
## # A tibble: 5 x 2
##   sex                n
##   <chr>          <int>
## 1 female            16
## 2 hermaphroditic     1
## 3 male              60
## 4 none               6
## 5 <NA>               4

## pipes: the usual way to use dplyr --> dataframe %>% operation1 %>% operation 2 .....
starwars %>% select(name,height)

## # A tibble: 87 x 2
##    name               height
##    <chr>               <int>
##  1 Luke Skywalker        172
##  2 C-3PO                 167
##  3 R2-D2                  96
##  4 Darth Vader           202
##  5 Leia Organa           150
##  6 Owen Lars             178
##  7 Beru Whitesun lars    165
##  8 R5-D4                  97
##  9 Biggs Darklighter     183
## 10 Obi-Wan Kenobi        182
## #  with 77 more rows
…
